…
*why not use \$ sign?* - because i don’t want to take out my variable
from my df - that’s how you make mistakes

*why use \[\[\]\]* So you can troubleshoot – happens a lot lol don’t use
dollar signs though Most folks who write code using tidyverse tools –\>
they just don’t use \$ signs

*look into a whileloop: eh nice to know*

``` r
weather_nest_df[["data"]]
```

    ## [[1]]
    ## # A tibble: 365 × 4
    ##    date        prcp  tmax  tmin
    ##    <date>     <dbl> <dbl> <dbl>
    ##  1 2017-01-01     0   8.9   4.4
    ##  2 2017-01-02    53   5     2.8
    ##  3 2017-01-03   147   6.1   3.9
    ##  4 2017-01-04     0  11.1   1.1
    ##  5 2017-01-05     0   1.1  -2.7
    ##  6 2017-01-06    13   0.6  -3.8
    ##  7 2017-01-07    81  -3.2  -6.6
    ##  8 2017-01-08     0  -3.8  -8.8
    ##  9 2017-01-09     0  -4.9  -9.9
    ## 10 2017-01-10     0   7.8  -6  
    ## # … with 355 more rows
    ## 
    ## [[2]]
    ## # A tibble: 365 × 4
    ##    date        prcp  tmax  tmin
    ##    <date>     <dbl> <dbl> <dbl>
    ##  1 2017-01-01     0  26.7  16.7
    ##  2 2017-01-02     0  27.2  16.7
    ##  3 2017-01-03     0  27.8  17.2
    ##  4 2017-01-04     0  27.2  16.7
    ##  5 2017-01-05     0  27.8  16.7
    ##  6 2017-01-06     0  27.2  16.7
    ##  7 2017-01-07     0  27.2  16.7
    ##  8 2017-01-08     0  25.6  15  
    ##  9 2017-01-09     0  27.2  15.6
    ## 10 2017-01-10     0  28.3  17.2
    ## # … with 355 more rows
    ## 
    ## [[3]]
    ## # A tibble: 365 × 4
    ##    date        prcp  tmax  tmin
    ##    <date>     <dbl> <dbl> <dbl>
    ##  1 2017-01-01   432  -6.8 -10.7
    ##  2 2017-01-02    25 -10.5 -12.4
    ##  3 2017-01-03     0  -8.9 -15.9
    ##  4 2017-01-04     0  -9.9 -15.5
    ##  5 2017-01-05     0  -5.9 -14.2
    ##  6 2017-01-06     0  -4.4 -11.3
    ##  7 2017-01-07    51   0.6 -11.5
    ##  8 2017-01-08    76   2.3  -1.2
    ##  9 2017-01-09    51  -1.2  -7  
    ## 10 2017-01-10     0  -5   -14.2
    ## # … with 355 more rows

\##WHat if you wanted to do an analysis on your dataframe of dataframe?
i.e. mini regression fitting model of tmax on tmin for an input data
frame

-   if you give me a df, i can do that

take out the data column (actually a list col) and the first element

``` r
weather_nest_df[["data"]][[1]]
```

    ## # A tibble: 365 × 4
    ##    date        prcp  tmax  tmin
    ##    <date>     <dbl> <dbl> <dbl>
    ##  1 2017-01-01     0   8.9   4.4
    ##  2 2017-01-02    53   5     2.8
    ##  3 2017-01-03   147   6.1   3.9
    ##  4 2017-01-04     0  11.1   1.1
    ##  5 2017-01-05     0   1.1  -2.7
    ##  6 2017-01-06    13   0.6  -3.8
    ##  7 2017-01-07    81  -3.2  -6.6
    ##  8 2017-01-08     0  -3.8  -8.8
    ##  9 2017-01-09     0  -4.9  -9.9
    ## 10 2017-01-10     0   7.8  -6  
    ## # … with 355 more rows
…
YUP

\##unnesting get back what you had before ; reverse of nest

``` r
weather_nest_df %>% 
  unnest(data)
```

    ## # A tibble: 1,095 × 6
    ##    name           id          date        prcp  tmax  tmin
    ##    <chr>          <chr>       <date>     <dbl> <dbl> <dbl>
    ##  1 CentralPark_NY USW00094728 2017-01-01     0   8.9   4.4
    ##  2 CentralPark_NY USW00094728 2017-01-02    53   5     2.8
    ##  3 CentralPark_NY USW00094728 2017-01-03   147   6.1   3.9
    ##  4 CentralPark_NY USW00094728 2017-01-04     0  11.1   1.1
    ##  5 CentralPark_NY USW00094728 2017-01-05     0   1.1  -2.7
    ##  6 CentralPark_NY USW00094728 2017-01-06    13   0.6  -3.8
    ##  7 CentralPark_NY USW00094728 2017-01-07    81  -3.2  -6.6
    ##  8 CentralPark_NY USW00094728 2017-01-08     0  -3.8  -8.8
    ##  9 CentralPark_NY USW00094728 2017-01-09     0  -4.9  -9.9
    ## 10 CentralPark_NY USW00094728 2017-01-10     0   7.8  -6  
    ## # … with 1,085 more rows
…
###OH: when did he nest it? Technically, everything was already unique so no need to nest? You have a column that is all tibbles ---> expand all the inception-dataframes

napoleon_reviews %>% 
  select(-page_url) %>% 
  unnest(reviews)
```

    ## # A tibble: 50 × 4
    ##     page title                                      stars text                  
    ##    <int> <chr>                                      <dbl> <chr>                 
    ##  1     1 Goofy movie                                    5 "I used this movie fo…
    ##  2     1 Lol hey it’s Napoleon. What’s not to love…     5 "Vote for Pedro"      
    ##  3     1 Still the best                                 5 "Completely stupid, a…
    ##  4     1 70’s and 80’s Schtick Comedy                   5 "…especially funny if…
    ##  5     1 Amazon Censorship                              5 "I hope Amazon does n…
    ##  6     1 Watch to say you did                           3 "I know it's supposed…
    ##  7     1 Best Movie Ever!                               5 "We just love this mo…
    ##  8     1 Quirky                                         5 "Good family film"    
    ##  9     1 Funny movie - can't play it !                  1 "Sony 4k player won't…
    ## 10     1 A brilliant story about teenage life           5 "Napoleon Dynamite de…
    ## # … with 40 more rows
